%!PS-Adobe-3.0 EPSF-3.0
%%Creator: G2
%CreationDate: Sat Apr 28 16:51:53 2018
%%Orientation: portrait
%%BoundingBox: 0 0 252 214
%%EndComments
%%BeginProlog
/mpldict 7 dict def
mpldict begin
/m { moveto } bind def
/l { lineto } bind def
/r { rlineto } bind def
/c { curveto } bind def
/cl { closepath } bind def
/box {
m
1 index 0 r
0 exch r
neg 0 r
cl
} bind def
/clipbox {
box
clip
newpath
} bind def
%%EndProlog
mpldict begin
252 214 0 0 clipbox
1.000 setlinewidth
0 setlinejoin
0 setlinecap
[] 0 setdash
0.000 setgray
gsave
169.958208 114.186072 m
171.602467 114.186072 173.179603 114.839343 174.34227 116.00201 c
175.504937 117.164677 176.158208 118.741813 176.158208 120.386072 c
176.158208 122.030331 175.504937 123.607467 174.34227 124.770134 c
173.179603 125.932801 171.602467 126.586072 169.958208 126.586072 c
168.313949 126.586072 166.736813 125.932801 165.574146 124.770134 c
164.411479 123.607467 163.758208 122.030331 163.758208 120.386072 c
163.758208 118.741813 164.411479 117.164677 165.574146 116.00201 c
166.736813 114.839343 168.313949 114.186072 169.958208 114.186072 c
cl
gsave
1.000 setgray
fill
grestore
stroke
grestore
gsave
90.177496 112.349382 m
91.821756 112.349382 93.398892 113.002653 94.561559 114.16532 c
95.724225 115.327987 96.377496 116.905123 96.377496 118.549382 c
96.377496 120.193642 95.724225 121.770778 94.561559 122.933444 c
93.398892 124.096111 91.821756 124.749382 90.177496 124.749382 c
88.533237 124.749382 86.956101 124.096111 85.793434 122.933444 c
84.630768 121.770778 83.977496 120.193642 83.977496 118.549382 c
83.977496 116.905123 84.630768 115.327987 85.793434 114.16532 c
86.956101 113.002653 88.533237 112.349382 90.177496 112.349382 c
cl
gsave
1.000 setgray
fill
grestore
stroke
grestore
gsave
203.279651 178.010731 m
204.92391 178.010731 206.501046 178.664002 207.663713 179.826669 c
208.826379 180.989335 209.479651 182.566471 209.479651 184.210731 c
209.479651 185.85499 208.826379 187.432126 207.663713 188.594793 c
206.501046 189.75746 204.92391 190.410731 203.279651 190.410731 c
201.635391 190.410731 200.058255 189.75746 198.895588 188.594793 c
197.732922 187.432126 197.079651 185.85499 197.079651 184.210731 c
197.079651 182.566471 197.732922 180.989335 198.895588 179.826669 c
200.058255 178.664002 201.635391 178.010731 203.279651 178.010731 c
cl
gsave
1.000 setgray
fill
grestore
stroke
grestore
gsave
128.925939 171.974004 m
130.570198 171.974004 132.147334 172.627275 133.310001 173.789942 c
134.472668 174.952609 135.125939 176.529745 135.125939 178.174004 c
135.125939 179.818264 134.472668 181.3954 133.310001 182.558066 c
132.147334 183.720733 130.570198 184.374004 128.925939 184.374004 c
127.28168 184.374004 125.704544 183.720733 124.541877 182.558066 c
123.37921 181.3954 122.725939 179.818264 122.725939 178.174004 c
122.725939 176.529745 123.37921 174.952609 124.541877 173.789942 c
125.704544 172.627275 127.28168 171.974004 128.925939 171.974004 c
cl
gsave
1.000 setgray
fill
grestore
stroke
grestore
gsave
52.035494 173.536211 m
53.679753 173.536211 55.256889 174.189482 56.419556 175.352149 c
57.582222 176.514815 58.235494 178.091951 58.235494 179.736211 c
58.235494 181.38047 57.582222 182.957606 56.419556 184.120273 c
55.256889 185.28294 53.679753 185.936211 52.035494 185.936211 c
50.391234 185.936211 48.814098 185.28294 47.651431 184.120273 c
46.488765 182.957606 45.835494 181.38047 45.835494 179.736211 c
45.835494 178.091951 46.488765 176.514815 47.651431 175.352149 c
48.814098 174.189482 50.391234 173.536211 52.035494 173.536211 c
cl
gsave
1.000 setgray
fill
grestore
stroke
grestore
gsave
231.860246 142.007609 m
233.504505 142.007609 235.081641 142.66088 236.244308 143.823547 c
237.406974 144.986214 238.060246 146.56335 238.060246 148.207609 c
238.060246 149.851868 237.406974 151.429004 236.244308 152.591671 c
235.081641 153.754338 233.504505 154.407609 231.860246 154.407609 c
230.215986 154.407609 228.63885 153.754338 227.476184 152.591671 c
226.313517 151.429004 225.660246 149.851868 225.660246 148.207609 c
225.660246 146.56335 226.313517 144.986214 227.476184 143.823547 c
228.63885 142.66088 230.215986 142.007609 231.860246 142.007609 c
cl
gsave
1.000 setgray
fill
grestore
stroke
grestore
gsave
28.978781 132.152058 m
30.62304 132.152058 32.200176 132.805329 33.362843 133.967996 c
34.52551 135.130663 35.178781 136.707799 35.178781 138.352058 c
35.178781 139.996317 34.52551 141.573453 33.362843 142.73612 c
32.200176 143.898787 30.62304 144.552058 28.978781 144.552058 c
27.334522 144.552058 25.757386 143.898787 24.594719 142.73612 c
23.432052 141.573453 22.778781 139.996317 22.778781 138.352058 c
22.778781 136.707799 23.432052 135.130663 24.594719 133.967996 c
25.757386 132.805329 27.334522 132.152058 28.978781 132.152058 c
cl
gsave
1.000 setgray
fill
grestore
stroke
grestore
gsave
131.777934 55.459412 m
133.422193 55.459412 134.999329 56.112683 136.161996 57.27535 c
137.324663 58.438017 137.977934 60.015153 137.977934 61.659412 c
137.977934 63.303671 137.324663 64.880807 136.161996 66.043474 c
134.999329 67.206141 133.422193 67.859412 131.777934 67.859412 c
130.133675 67.859412 128.556539 67.206141 127.393872 66.043474 c
126.231205 64.880807 125.577934 63.303671 125.577934 61.659412 c
125.577934 60.015153 126.231205 58.438017 127.393872 57.27535 c
128.556539 56.112683 130.133675 55.459412 131.777934 55.459412 c
cl
gsave
1.000 setgray
fill
grestore
stroke
grestore
gsave
170.44971 110.924393 m
176.337219 110.924393 181.984383 113.263525 186.147481 117.426623 c
190.310578 121.58972 192.64971 127.236885 192.64971 133.124393 c
192.64971 139.011902 190.310578 144.659067 186.147481 148.822164 c
181.984383 152.985261 176.337219 155.324393 170.44971 155.324393 c
164.562201 155.324393 158.915037 152.985261 154.75194 148.822164 c
150.588842 144.659067 148.24971 139.011902 148.24971 133.124393 c
148.24971 127.236885 150.588842 121.58972 154.75194 117.426623 c
158.915037 113.263525 164.562201 110.924393 170.44971 110.924393 c
cl
gsave
0.941 0.784 0.627 setrgbcolor
fill
grestore
stroke
grestore
gsave
91.023786 108.376141 m
96.911295 108.376141 102.558459 110.715273 106.721557 114.87837 c
110.884654 119.041467 113.223786 124.688632 113.223786 130.576141 c
113.223786 136.463649 110.884654 142.110814 106.721557 146.273911 c
102.558459 150.437009 96.911295 152.776141 91.023786 152.776141 c
85.136277 152.776141 79.489113 150.437009 75.326016 146.273911 c
71.162918 142.110814 68.823786 136.463649 68.823786 130.576141 c
68.823786 124.688632 71.162918 119.041467 75.326016 114.87837 c
79.489113 110.715273 85.136277 108.376141 91.023786 108.376141 c
cl
gsave
0.941 0.784 0.627 setrgbcolor
fill
grestore
stroke
grestore
gsave
206.337939 140.404592 m
212.225448 140.404592 217.872613 142.743724 222.03571 146.906821 c
226.198807 151.069919 228.537939 156.717083 228.537939 162.604592 c
228.537939 168.492101 226.198807 174.139265 222.03571 178.302362 c
217.872613 182.46546 212.225448 184.804592 206.337939 184.804592 c
200.450431 184.804592 194.803266 182.46546 190.640169 178.302362 c
186.477071 174.139265 184.137939 168.492101 184.137939 162.604592 c
184.137939 156.717083 186.477071 151.069919 190.640169 146.906821 c
194.803266 142.743724 200.450431 140.404592 206.337939 140.404592 c
cl
gsave
0.941 0.784 0.627 setrgbcolor
fill
grestore
stroke
grestore
gsave
129.788864 134.328792 m
135.676373 134.328792 141.323538 136.667925 145.486635 140.831022 c
149.649732 144.994119 151.988864 150.641284 151.988864 156.528792 c
151.988864 162.416301 149.649732 168.063466 145.486635 172.226563 c
141.323538 176.38966 135.676373 178.728792 129.788864 178.728792 c
123.901356 178.728792 118.254191 176.38966 114.091094 172.226563 c
109.927996 168.063466 107.588864 162.416301 107.588864 156.528792 c
107.588864 150.641284 109.927996 144.994119 114.091094 140.831022 c
118.254191 136.667925 123.901356 134.328792 129.788864 134.328792 c
cl
gsave
0.941 0.784 0.627 setrgbcolor
fill
grestore
stroke
grestore
gsave
51.659877 132.804959 m
57.547386 132.804959 63.19455 135.144091 67.357647 139.307188 c
71.520745 143.470285 73.859877 149.11745 73.859877 155.004959 c
73.859877 160.892467 71.520745 166.539632 67.357647 170.702729 c
63.19455 174.865827 57.547386 177.204959 51.659877 177.204959 c
45.772368 177.204959 40.125204 174.865827 35.962106 170.702729 c
31.799009 166.539632 29.459877 160.892467 29.459877 155.004959 c
29.459877 149.11745 31.799009 143.470285 35.962106 139.307188 c
40.125204 135.144091 45.772368 132.804959 51.659877 132.804959 c
cl
gsave
0.941 0.784 0.627 setrgbcolor
fill
grestore
stroke
grestore
gsave
131.394389 50.133044 m
137.281897 50.133044 142.929062 52.472176 147.092159 56.635273 c
151.255257 60.79837 153.594389 66.445535 153.594389 72.333044 c
153.594389 78.220552 151.255257 83.867717 147.092159 88.030814 c
142.929062 92.193912 137.281897 94.533044 131.394389 94.533044 c
125.50688 94.533044 119.859716 92.193912 115.696618 88.030814 c
111.533521 83.867717 109.194389 78.220552 109.194389 72.333044 c
109.194389 66.445535 111.533521 60.79837 115.696618 56.635273 c
119.859716 52.472176 125.50688 50.133044 131.394389 50.133044 c
cl
gsave
0.941 0.784 0.627 setrgbcolor
fill
grestore
stroke
grestore
gsave
67.875545 71.663217 m
69.519804 71.663217 71.09694 72.316489 72.259607 73.479155 c
73.422274 74.641822 74.075545 76.218958 74.075545 77.863217 c
74.075545 79.507477 73.422274 81.084613 72.259607 82.247279 c
71.09694 83.409946 69.519804 84.063217 67.875545 84.063217 c
66.231286 84.063217 64.65415 83.409946 63.491483 82.247279 c
62.328816 81.084613 61.675545 79.507477 61.675545 77.863217 c
61.675545 76.218958 62.328816 74.641822 63.491483 73.479155 c
64.65415 72.316489 66.231286 71.663217 67.875545 71.663217 c
cl
gsave
1.000 setgray
fill
grestore
stroke
grestore
gsave
91.789939 73.682002 m
97.677448 73.682002 103.324612 76.021134 107.487709 80.184232 c
111.650807 84.347329 113.989939 89.994494 113.989939 95.882002 c
113.989939 101.769511 111.650807 107.416676 107.487709 111.579773 c
103.324612 115.74287 97.677448 118.082002 91.789939 118.082002 c
85.90243 118.082002 80.255266 115.74287 76.092168 111.579773 c
71.929071 107.416676 69.589939 101.769511 69.589939 95.882002 c
69.589939 89.994494 71.929071 84.347329 76.092168 80.184232 c
80.255266 76.021134 85.90243 73.682002 91.789939 73.682002 c
cl
gsave
0.941 0.784 0.627 setrgbcolor
fill
grestore
stroke
grestore
gsave
169.249224 77.551791 m
175.136733 77.551791 180.783898 79.890924 184.946995 84.054021 c
189.110092 88.217118 191.449224 93.864283 191.449224 99.751791 c
191.449224 105.6393 189.110092 111.286465 184.946995 115.449562 c
180.783898 119.612659 175.136733 121.951791 169.249224 121.951791 c
163.361716 121.951791 157.714551 119.612659 153.551454 115.449562 c
149.388356 111.286465 147.049224 105.6393 147.049224 99.751791 c
147.049224 93.864283 149.388356 88.217118 153.551454 84.054021 c
157.714551 79.890924 163.361716 77.551791 169.249224 77.551791 c
cl
gsave
0.941 0.784 0.627 setrgbcolor
fill
grestore
stroke
grestore
gsave
209.645355 158.847652 m
215.532864 158.847652 221.180028 161.186784 225.343126 165.349881 c
229.506223 169.512978 231.845355 175.160143 231.845355 181.047652 c
231.845355 186.93516 229.506223 192.582325 225.343126 196.745422 c
221.180028 200.90852 215.532864 203.247652 209.645355 203.247652 c
203.757846 203.247652 198.110682 200.90852 193.947585 196.745422 c
189.784487 192.582325 187.445355 186.93516 187.445355 181.047652 c
187.445355 175.160143 189.784487 169.512978 193.947585 165.349881 c
198.110682 161.186784 203.757846 158.847652 209.645355 158.847652 c
cl
gsave
0.941 0.784 0.627 setrgbcolor
fill
grestore
stroke
grestore
gsave
99.658448 188.11097 m
101.302707 188.11097 102.879843 188.764241 104.04251 189.926908 c
105.205177 191.089575 105.858448 192.666711 105.858448 194.31097 c
105.858448 195.955229 105.205177 197.532365 104.04251 198.695032 c
102.879843 199.857699 101.302707 200.51097 99.658448 200.51097 c
98.014189 200.51097 96.437053 199.857699 95.274386 198.695032 c
94.111719 197.532365 93.458448 195.955229 93.458448 194.31097 c
93.458448 192.666711 94.111719 191.089575 95.274386 189.926908 c
96.437053 188.764241 98.014189 188.11097 99.658448 188.11097 c
cl
gsave
1.000 setgray
fill
grestore
stroke
grestore
gsave
124.881634 155.554013 m
130.769143 155.554013 136.416308 157.893145 140.579405 162.056243 c
144.742502 166.21934 147.081634 171.866504 147.081634 177.754013 c
147.081634 183.641522 144.742502 189.288686 140.579405 193.451784 c
136.416308 197.614881 130.769143 199.954013 124.881634 199.954013 c
118.994126 199.954013 113.346961 197.614881 109.183864 193.451784 c
105.020766 189.288686 102.681634 183.641522 102.681634 177.754013 c
102.681634 171.866504 105.020766 166.21934 109.183864 162.056243 c
113.346961 157.893145 118.994126 155.554013 124.881634 155.554013 c
cl
gsave
0.941 0.784 0.627 setrgbcolor
fill
grestore
stroke
grestore
gsave
189.396356 196.905664 m
191.040615 196.905664 192.617751 197.558935 193.780418 198.721602 c
194.943085 199.884268 195.596356 201.461404 195.596356 203.105664 c
195.596356 204.749923 194.943085 206.327059 193.780418 207.489726 c
192.617751 208.652393 191.040615 209.305664 189.396356 209.305664 c
187.752097 209.305664 186.174961 208.652393 185.012294 207.489726 c
183.849627 206.327059 183.196356 204.749923 183.196356 203.105664 c
183.196356 201.461404 183.849627 199.884268 185.012294 198.721602 c
186.174961 197.558935 187.752097 196.905664 189.396356 196.905664 c
cl
gsave
1.000 setgray
fill
grestore
stroke
grestore
gsave
236.606405 187.772418 m
238.250664 187.772418 239.8278 188.42569 240.990467 189.588356 c
242.153134 190.751023 242.806405 192.328159 242.806405 193.972418 c
242.806405 195.616678 242.153134 197.193814 240.990467 198.35648 c
239.8278 199.519147 238.250664 200.172418 236.606405 200.172418 c
234.962145 200.172418 233.385009 199.519147 232.222343 198.35648 c
231.059676 197.193814 230.406405 195.616678 230.406405 193.972418 c
230.406405 192.328159 231.059676 190.751023 232.222343 189.588356 c
233.385009 188.42569 234.962145 187.772418 236.606405 187.772418 c
cl
gsave
1.000 setgray
fill
grestore
stroke
grestore
gsave
146.128824 5.105016 m
147.773083 5.105016 149.350219 5.758287 150.512886 6.920954 c
151.675553 8.083621 152.328824 9.660757 152.328824 11.305016 c
152.328824 12.949275 151.675553 14.526411 150.512886 15.689078 c
149.350219 16.851745 147.773083 17.505016 146.128824 17.505016 c
144.484565 17.505016 142.907429 16.851745 141.744762 15.689078 c
140.582095 14.526411 139.928824 12.949275 139.928824 11.305016 c
139.928824 9.660757 140.582095 8.083621 141.744762 6.920954 c
142.907429 5.758287 144.484565 5.105016 146.128824 5.105016 c
cl
gsave
1.000 setgray
fill
grestore
stroke
grestore
gsave
41.120092 145.16754 m
47.0076 145.16754 52.654765 147.506672 56.817862 151.66977 c
60.980959 155.832867 63.320092 161.480031 63.320092 167.36754 c
63.320092 173.255049 60.980959 178.902213 56.817862 183.065311 c
52.654765 187.228408 47.0076 189.56754 41.120092 189.56754 c
35.232583 189.56754 29.585418 187.228408 25.422321 183.065311 c
21.259224 178.902213 18.920092 173.255049 18.920092 167.36754 c
18.920092 161.480031 21.259224 155.832867 25.422321 151.66977 c
29.585418 147.506672 35.232583 145.16754 41.120092 145.16754 c
cl
gsave
0.941 0.784 0.627 setrgbcolor
fill
grestore
stroke
grestore
gsave
12.212854 169.714154 m
13.857113 169.714154 15.434249 170.367425 16.596916 171.530092 c
17.759583 172.692759 18.412854 174.269895 18.412854 175.914154 c
18.412854 177.558413 17.759583 179.135549 16.596916 180.298216 c
15.434249 181.460883 13.857113 182.114154 12.212854 182.114154 c
10.568595 182.114154 8.991459 181.460883 7.828792 180.298216 c
6.666125 179.135549 6.012854 177.558413 6.012854 175.914154 c
6.012854 174.269895 6.666125 172.692759 7.828792 171.530092 c
8.991459 170.367425 10.568595 169.714154 12.212854 169.714154 c
cl
gsave
1.000 setgray
fill
grestore
stroke
grestore
gsave
147.352564 191.021304 m
148.996823 191.021304 150.573959 191.674575 151.736626 192.837242 c
152.899293 193.999908 153.552564 195.577044 153.552564 197.221304 c
153.552564 198.865563 152.899293 200.442699 151.736626 201.605366 c
150.573959 202.768033 148.996823 203.421304 147.352564 203.421304 c
145.708305 203.421304 144.131169 202.768033 142.968502 201.605366 c
141.805835 200.442699 141.152564 198.865563 141.152564 197.221304 c
141.152564 195.577044 141.805835 193.999908 142.968502 192.837242 c
144.131169 191.674575 145.708305 191.021304 147.352564 191.021304 c
cl
gsave
1.000 setgray
fill
grestore
stroke
grestore
gsave
216.936092 46.284676 m
218.580351 46.284676 220.157487 46.937947 221.320154 48.100614 c
222.482821 49.26328 223.136092 50.840416 223.136092 52.484676 c
223.136092 54.128935 222.482821 55.706071 221.320154 56.868738 c
220.157487 58.031405 218.580351 58.684676 216.936092 58.684676 c
215.291833 58.684676 213.714697 58.031405 212.55203 56.868738 c
211.389363 55.706071 210.736092 54.128935 210.736092 52.484676 c
210.736092 50.840416 211.389363 49.26328 212.55203 48.100614 c
213.714697 46.937947 215.291833 46.284676 216.936092 46.284676 c
cl
gsave
1.000 setgray
fill
grestore
stroke
grestore
gsave
147.813328 18.460401 m
153.700836 18.460401 159.348001 20.799533 163.511098 24.96263 c
167.674196 29.125728 170.013328 34.772892 170.013328 40.660401 c
170.013328 46.54791 167.674196 52.195074 163.511098 56.358172 c
159.348001 60.521269 153.700836 62.860401 147.813328 62.860401 c
141.925819 62.860401 136.278654 60.521269 132.115557 56.358172 c
127.95246 52.195074 125.613328 46.54791 125.613328 40.660401 c
125.613328 34.772892 127.95246 29.125728 132.115557 24.96263 c
136.278654 20.799533 141.925819 18.460401 147.813328 18.460401 c
cl
gsave
0.941 0.784 0.627 setrgbcolor
fill
grestore
stroke
grestore
gsave
56.819119 185.869522 m
58.463379 185.869522 60.040515 186.522793 61.203182 187.68546 c
62.365848 188.848126 63.019119 190.425262 63.019119 192.069522 c
63.019119 193.713781 62.365848 195.290917 61.203182 196.453584 c
60.040515 197.616251 58.463379 198.269522 56.819119 198.269522 c
55.17486 198.269522 53.597724 197.616251 52.435057 196.453584 c
51.272391 195.290917 50.619119 193.713781 50.619119 192.069522 c
50.619119 190.425262 51.272391 188.848126 52.435057 187.68546 c
53.597724 186.522793 55.17486 185.869522 56.819119 185.869522 c
cl
gsave
1.000 setgray
fill
grestore
stroke
grestore
gsave
189.314998 41.879345 m
195.202507 41.879345 200.849671 44.218477 205.012768 48.381574 c
209.175866 52.544672 211.514998 58.191836 211.514998 64.079345 c
211.514998 69.966854 209.175866 75.614018 205.012768 79.777115 c
200.849671 83.940213 195.202507 86.279345 189.314998 86.279345 c
183.427489 86.279345 177.780325 83.940213 173.617227 79.777115 c
169.45413 75.614018 167.114998 69.966854 167.114998 64.079345 c
167.114998 58.191836 169.45413 52.544672 173.617227 48.381574 c
177.780325 44.218477 183.427489 41.879345 189.314998 41.879345 c
cl
gsave
0.941 0.784 0.627 setrgbcolor
fill
grestore
stroke
grestore
gsave
225.668329 121.750214 m
227.312588 121.750214 228.889724 122.403485 230.052391 123.566152 c
231.215058 124.728819 231.868329 126.305955 231.868329 127.950214 c
231.868329 129.594474 231.215058 131.17161 230.052391 132.334276 c
228.889724 133.496943 227.312588 134.150214 225.668329 134.150214 c
224.02407 134.150214 222.446934 133.496943 221.284267 132.334276 c
220.1216 131.17161 219.468329 129.594474 219.468329 127.950214 c
219.468329 126.305955 220.1216 124.728819 221.284267 123.566152 c
222.446934 122.403485 224.02407 121.750214 225.668329 121.750214 c
cl
gsave
1.000 setgray
fill
grestore
stroke
grestore
gsave
164.042639 100.638924 m
169.930148 100.638924 175.577312 102.978057 179.74041 107.141154 c
183.903507 111.304251 186.242639 116.951416 186.242639 122.838924 c
186.242639 128.726433 183.903507 134.373598 179.74041 138.536695 c
175.577312 142.699792 169.930148 145.038924 164.042639 145.038924 c
158.15513 145.038924 152.507966 142.699792 148.344869 138.536695 c
144.181771 134.373598 141.842639 128.726433 141.842639 122.838924 c
141.842639 116.951416 144.181771 111.304251 148.344869 107.141154 c
152.507966 102.978057 158.15513 100.638924 164.042639 100.638924 c
cl
gsave
0.941 0.784 0.627 setrgbcolor
fill
grestore
stroke
grestore
gsave
89.855625 91.491392 m
95.743133 91.491392 101.390298 93.830524 105.553395 97.993621 c
109.716493 102.156719 112.055625 107.803883 112.055625 113.691392 c
112.055625 119.578901 109.716493 125.226065 105.553395 129.389162 c
101.390298 133.55226 95.743133 135.891392 89.855625 135.891392 c
83.968116 135.891392 78.320951 133.55226 74.157854 129.389162 c
69.994757 125.226065 67.655625 119.578901 67.655625 113.691392 c
67.655625 107.803883 69.994757 102.156719 74.157854 97.993621 c
78.320951 93.830524 83.968116 91.491392 89.855625 91.491392 c
cl
gsave
0.941 0.784 0.627 setrgbcolor
fill
grestore
stroke
grestore
gsave
203.790069 125.999738 m
209.677578 125.999738 215.324742 128.33887 219.487839 132.501967 c
223.650937 136.665065 225.990069 142.312229 225.990069 148.199738 c
225.990069 154.087247 223.650937 159.734411 219.487839 163.897508 c
215.324742 168.060606 209.677578 170.399738 203.790069 170.399738 c
197.90256 170.399738 192.255396 168.060606 188.092298 163.897508 c
183.929201 159.734411 181.590069 154.087247 181.590069 148.199738 c
181.590069 142.312229 183.929201 136.665065 188.092298 132.501967 c
192.255396 128.33887 197.90256 125.999738 203.790069 125.999738 c
cl
gsave
0.941 0.784 0.627 setrgbcolor
fill
grestore
stroke
grestore
gsave
26.799097 107.145795 m
28.443356 107.145795 30.020492 107.799066 31.183159 108.961733 c
32.345826 110.1244 32.999097 111.701536 32.999097 113.345795 c
32.999097 114.990054 32.345826 116.56719 31.183159 117.729857 c
30.020492 118.892524 28.443356 119.545795 26.799097 119.545795 c
25.154838 119.545795 23.577702 118.892524 22.415035 117.729857 c
21.252368 116.56719 20.599097 114.990054 20.599097 113.345795 c
20.599097 111.701536 21.252368 110.1244 22.415035 108.961733 c
23.577702 107.799066 25.154838 107.145795 26.799097 107.145795 c
cl
gsave
1.000 setgray
fill
grestore
stroke
grestore
gsave
124.071918 123.531339 m
129.959427 123.531339 135.606591 125.870471 139.769688 130.033568 c
143.932786 134.196666 146.271918 139.84383 146.271918 145.731339 c
146.271918 151.618848 143.932786 157.266012 139.769688 161.429109 c
135.606591 165.592207 129.959427 167.931339 124.071918 167.931339 c
118.184409 167.931339 112.537245 165.592207 108.374147 161.429109 c
104.21105 157.266012 101.871918 151.618848 101.871918 145.731339 c
101.871918 139.84383 104.21105 134.196666 108.374147 130.033568 c
112.537245 125.870471 118.184409 123.531339 124.071918 123.531339 c
cl
gsave
0.941 0.784 0.627 setrgbcolor
fill
grestore
stroke
grestore
gsave
48.31071 112.066387 m
54.198219 112.066387 59.845383 114.405519 64.008481 118.568617 c
68.171578 122.731714 70.51071 128.378879 70.51071 134.266387 c
70.51071 140.153896 68.171578 145.80106 64.008481 149.964158 c
59.845383 154.127255 54.198219 156.466387 48.31071 156.466387 c
42.423201 156.466387 36.776037 154.127255 32.612939 149.964158 c
28.449842 145.80106 26.11071 140.153896 26.11071 134.266387 c
26.11071 128.378879 28.449842 122.731714 32.612939 118.568617 c
36.776037 114.405519 42.423201 112.066387 48.31071 112.066387 c
cl
gsave
0.941 0.784 0.627 setrgbcolor
fill
grestore
stroke
grestore
gsave
135.291637 33.272746 m
141.179146 33.272746 146.82631 35.611878 150.989408 39.774975 c
155.152505 43.938072 157.491637 49.585237 157.491637 55.472746 c
157.491637 61.360254 155.152505 67.007419 150.989408 71.170516 c
146.82631 75.333614 141.179146 77.672746 135.291637 77.672746 c
129.404128 77.672746 123.756964 75.333614 119.593867 71.170516 c
115.430769 67.007419 113.091637 61.360254 113.091637 55.472746 c
113.091637 49.585237 115.430769 43.938072 119.593867 39.774975 c
123.756964 35.611878 129.404128 33.272746 135.291637 33.272746 c
cl
gsave
0.941 0.784 0.627 setrgbcolor
fill
grestore
stroke
grestore
gsave
172.788346 62.160376 m
178.675855 62.160376 184.323019 64.499508 188.486116 68.662606 c
192.649214 72.825703 194.988346 78.472867 194.988346 84.360376 c
194.988346 90.247885 192.649214 95.895049 188.486116 100.058147 c
184.323019 104.221244 178.675855 106.560376 172.788346 106.560376 c
166.900837 106.560376 161.253673 104.221244 157.090575 100.058147 c
152.927478 95.895049 150.588346 90.247885 150.588346 84.360376 c
150.588346 78.472867 152.927478 72.825703 157.090575 68.662606 c
161.253673 64.499508 166.900837 62.160376 172.788346 62.160376 c
cl
gsave
0.941 0.784 0.627 setrgbcolor
fill
grestore
stroke
grestore
gsave
71.918828 53.866865 m
73.563088 53.866865 75.140224 54.520136 76.30289 55.682803 c
77.465557 56.84547 78.118828 58.422606 78.118828 60.066865 c
78.118828 61.711124 77.465557 63.28826 76.30289 64.450927 c
75.140224 65.613594 73.563088 66.266865 71.918828 66.266865 c
70.274569 66.266865 68.697433 65.613594 67.534766 64.450927 c
66.372099 63.28826 65.718828 61.711124 65.718828 60.066865 c
65.718828 58.422606 66.372099 56.84547 67.534766 55.682803 c
68.697433 54.520136 70.274569 53.866865 71.918828 53.866865 c
cl
gsave
1.000 setgray
fill
grestore
stroke
grestore
gsave
95.667142 56.536375 m
101.554651 56.536375 107.201815 58.875507 111.364912 63.038604 c
115.52801 67.201702 117.867142 72.848866 117.867142 78.736375 c
117.867142 84.623883 115.52801 90.271048 111.364912 94.434145 c
107.201815 98.597243 101.554651 100.936375 95.667142 100.936375 c
89.779633 100.936375 84.132469 98.597243 79.969371 94.434145 c
75.806274 90.271048 73.467142 84.623883 73.467142 78.736375 c
73.467142 72.848866 75.806274 67.201702 79.969371 63.038604 c
84.132469 58.875507 89.779633 56.536375 95.667142 56.536375 c
cl
gsave
0.941 0.784 0.627 setrgbcolor
fill
grestore
stroke
grestore
gsave
138.275891 27.372931 m
139.92015 27.372931 141.497286 28.026202 142.659953 29.188869 c
143.82262 30.351536 144.475891 31.928672 144.475891 33.572931 c
144.475891 35.21719 143.82262 36.794326 142.659953 37.956993 c
141.497286 39.11966 139.92015 39.772931 138.275891 39.772931 c
136.631631 39.772931 135.054495 39.11966 133.891829 37.956993 c
132.729162 36.794326 132.075891 35.21719 132.075891 33.572931 c
132.075891 31.928672 132.729162 30.351536 133.891829 29.188869 c
135.054495 28.026202 136.631631 27.372931 138.275891 27.372931 c
cl
gsave
1.000 setgray
fill
grestore
stroke
grestore
gsave
240.327011 171.48469 m
241.97127 171.48469 243.548406 172.137961 244.711073 173.300628 c
245.873739 174.463295 246.527011 176.040431 246.527011 177.68469 c
246.527011 179.328949 245.873739 180.906085 244.711073 182.068752 c
243.548406 183.231419 241.97127 183.88469 240.327011 183.88469 c
238.682751 183.88469 237.105615 183.231419 235.942949 182.068752 c
234.780282 180.906085 234.127011 179.328949 234.127011 177.68469 c
234.127011 176.040431 234.780282 174.463295 235.942949 173.300628 c
237.105615 172.137961 238.682751 171.48469 240.327011 171.48469 c
cl
gsave
1.000 setgray
fill
grestore
stroke
grestore
gsave
213.553639 141.679728 m
219.441148 141.679728 225.088312 144.01886 229.251409 148.181957 c
233.414507 152.345055 235.753639 157.992219 235.753639 163.879728 c
235.753639 169.767237 233.414507 175.414401 229.251409 179.577498 c
225.088312 183.740596 219.441148 186.079728 213.553639 186.079728 c
207.66613 186.079728 202.018966 183.740596 197.855868 179.577498 c
193.692771 175.414401 191.353639 169.767237 191.353639 163.879728 c
191.353639 157.992219 193.692771 152.345055 197.855868 148.181957 c
202.018966 144.01886 207.66613 141.679728 213.553639 141.679728 c
cl
gsave
0.941 0.784 0.627 setrgbcolor
fill
grestore
stroke
grestore
gsave
128.892732 137.516184 m
134.780241 137.516184 140.427405 139.855316 144.590503 144.018413 c
148.7536 148.181511 151.092732 153.828675 151.092732 159.716184 c
151.092732 165.603693 148.7536 171.250857 144.590503 175.413955 c
140.427405 179.577052 134.780241 181.916184 128.892732 181.916184 c
123.005223 181.916184 117.358059 179.577052 113.194962 175.413955 c
109.031864 171.250857 106.692732 165.603693 106.692732 159.716184 c
106.692732 153.828675 109.031864 148.181511 113.194962 144.018413 c
117.358059 139.855316 123.005223 137.516184 128.892732 137.516184 c
cl
gsave
0.941 0.784 0.627 setrgbcolor
fill
grestore
stroke
grestore
gsave
45.051637 127.487407 m
50.939146 127.487407 56.58631 129.826539 60.749407 133.989636 c
64.912505 138.152733 67.251637 143.799898 67.251637 149.687407 c
67.251637 155.574915 64.912505 161.22208 60.749407 165.385177 c
56.58631 169.548275 50.939146 171.887407 45.051637 171.887407 c
39.164128 171.887407 33.516964 169.548275 29.353866 165.385177 c
25.190769 161.22208 22.851637 155.574915 22.851637 149.687407 c
22.851637 143.799898 25.190769 138.152733 29.353866 133.989636 c
33.516964 129.826539 39.164128 127.487407 45.051637 127.487407 c
cl
gsave
0.941 0.784 0.627 setrgbcolor
fill
grestore
stroke
grestore
gsave
151.274492 173.629808 m
152.918751 173.629808 154.495887 174.283079 155.658554 175.445746 c
156.821221 176.608412 157.474492 178.185548 157.474492 179.829808 c
157.474492 181.474067 156.821221 183.051203 155.658554 184.21387 c
154.495887 185.376537 152.918751 186.029808 151.274492 186.029808 c
149.630233 186.029808 148.053097 185.376537 146.89043 184.21387 c
145.727763 183.051203 145.074492 181.474067 145.074492 179.829808 c
145.074492 178.185548 145.727763 176.608412 146.89043 175.445746 c
148.053097 174.283079 149.630233 173.629808 151.274492 173.629808 c
cl
gsave
1.000 setgray
fill
grestore
stroke
grestore
gsave
193.595776 178.541645 m
195.240035 178.541645 196.817171 179.194916 197.979838 180.357583 c
199.142505 181.52025 199.795776 183.097386 199.795776 184.741645 c
199.795776 186.385904 199.142505 187.96304 197.979838 189.125707 c
196.817171 190.288374 195.240035 190.941645 193.595776 190.941645 c
191.951517 190.941645 190.374381 190.288374 189.211714 189.125707 c
188.049047 187.96304 187.395776 186.385904 187.395776 184.741645 c
187.395776 183.097386 188.049047 181.52025 189.211714 180.357583 c
190.374381 179.194916 191.951517 178.541645 193.595776 178.541645 c
cl
gsave
1.000 setgray
fill
grestore
stroke
grestore
gsave
60.622766 169.093751 m
62.267025 169.093751 63.844161 169.747022 65.006828 170.909689 c
66.169494 172.072356 66.822766 173.649492 66.822766 175.293751 c
66.822766 176.93801 66.169494 178.515146 65.006828 179.677813 c
63.844161 180.84048 62.267025 181.493751 60.622766 181.493751 c
58.978506 181.493751 57.40137 180.84048 56.238704 179.677813 c
55.076037 178.515146 54.422766 176.93801 54.422766 175.293751 c
54.422766 173.649492 55.076037 172.072356 56.238704 170.909689 c
57.40137 169.747022 58.978506 169.093751 60.622766 169.093751 c
cl
gsave
1.000 setgray
fill
grestore
stroke
grestore
gsave
16.439426 150.849065 m
18.083685 150.849065 19.660821 151.502336 20.823488 152.665003 c
21.986155 153.82767 22.639426 155.404806 22.639426 157.049065 c
22.639426 158.693324 21.986155 160.27046 20.823488 161.433127 c
19.660821 162.595794 18.083685 163.249065 16.439426 163.249065 c
14.795166 163.249065 13.21803 162.595794 12.055364 161.433127 c
10.892697 160.27046 10.239426 158.693324 10.239426 157.049065 c
10.239426 155.404806 10.892697 153.82767 12.055364 152.665003 c
13.21803 151.502336 14.795166 150.849065 16.439426 150.849065 c
cl
gsave
1.000 setgray
fill
grestore
stroke
grestore
gsave
104.244253 167.742511 m
105.888512 167.742511 107.465648 168.395783 108.628315 169.558449 c
109.790982 170.721116 110.444253 172.298252 110.444253 173.942511 c
110.444253 175.586771 109.790982 177.163907 108.628315 178.326574 c
107.465648 179.48924 105.888512 180.142511 104.244253 180.142511 c
102.599994 180.142511 101.022858 179.48924 99.860191 178.326574 c
98.697524 177.163907 98.044253 175.586771 98.044253 173.942511 c
98.044253 172.298252 98.697524 170.721116 99.860191 169.558449 c
101.022858 168.395783 102.599994 167.742511 104.244253 167.742511 c
cl
gsave
1.000 setgray
fill
grestore
stroke
grestore
gsave
177.944005 77.992562 m
183.831514 77.992562 189.478678 80.331694 193.641775 84.494791 c
197.804873 88.657889 200.144005 94.305053 200.144005 100.192562 c
200.144005 106.080071 197.804873 111.727235 193.641775 115.890332 c
189.478678 120.05343 183.831514 122.392562 177.944005 122.392562 c
172.056496 122.392562 166.409332 120.05343 162.246234 115.890332 c
158.083137 111.727235 155.744005 106.080071 155.744005 100.192562 c
155.744005 94.305053 158.083137 88.657889 162.246234 84.494791 c
166.409332 80.331694 172.056496 77.992562 177.944005 77.992562 c
cl
gsave
0.941 0.784 0.627 setrgbcolor
fill
grestore
stroke
grestore
gsave
239.745038 107.219272 m
241.389298 107.219272 242.966434 107.872543 244.1291 109.03521 c
245.291767 110.197877 245.945038 111.775013 245.945038 113.419272 c
245.945038 115.063531 245.291767 116.640667 244.1291 117.803334 c
242.966434 118.966001 241.389298 119.619272 239.745038 119.619272 c
238.100779 119.619272 236.523643 118.966001 235.360976 117.803334 c
234.19831 116.640667 233.545038 115.063531 233.545038 113.419272 c
233.545038 111.775013 234.19831 110.197877 235.360976 109.03521 c
236.523643 107.872543 238.100779 107.219272 239.745038 107.219272 c
cl
gsave
1.000 setgray
fill
grestore
stroke
grestore
gsave
98.765426 73.997351 m
104.652935 73.997351 110.300099 76.336483 114.463196 80.49958 c
118.626294 84.662678 120.965426 90.309842 120.965426 96.197351 c
120.965426 102.08486 118.626294 107.732024 114.463196 111.895122 c
110.300099 116.058219 104.652935 118.397351 98.765426 118.397351 c
92.877917 118.397351 87.230753 116.058219 83.067655 111.895122 c
78.904558 107.732024 76.565426 102.08486 76.565426 96.197351 c
76.565426 90.309842 78.904558 84.662678 83.067655 80.49958 c
87.230753 76.336483 92.877917 73.997351 98.765426 73.997351 c
cl
gsave
0.941 0.784 0.627 setrgbcolor
fill
grestore
stroke
grestore
gsave
214.02658 106.631289 m
219.914089 106.631289 225.561253 108.970422 229.72435 113.133519 c
233.887448 117.296616 236.22658 122.943781 236.22658 128.831289 c
236.22658 134.718798 233.887448 140.365963 229.72435 144.52906 c
225.561253 148.692157 219.914089 151.031289 214.02658 151.031289 c
208.139071 151.031289 202.491907 148.692157 198.328809 144.52906 c
194.165712 140.365963 191.82658 134.718798 191.82658 128.831289 c
191.82658 122.943781 194.165712 117.296616 198.328809 113.133519 c
202.491907 108.970422 208.139071 106.631289 214.02658 106.631289 c
cl
gsave
0.941 0.784 0.627 setrgbcolor
fill
grestore
stroke
grestore
gsave
137.301367 100.478802 m
143.188876 100.478802 148.83604 102.817934 152.999138 106.981032 c
157.162235 111.144129 159.501367 116.791293 159.501367 122.678802 c
159.501367 128.566311 157.162235 134.213475 152.999138 138.376573 c
148.83604 142.53967 143.188876 144.878802 137.301367 144.878802 c
131.413858 144.878802 125.766694 142.53967 121.603597 138.376573 c
117.440499 134.213475 115.101367 128.566311 115.101367 122.678802 c
115.101367 116.791293 117.440499 111.144129 121.603597 106.981032 c
125.766694 102.817934 131.413858 100.478802 137.301367 100.478802 c
cl
gsave
0.941 0.784 0.627 setrgbcolor
fill
grestore
stroke
grestore
gsave
59.581407 97.502124 m
65.468916 97.502124 71.11608 99.841256 75.279178 104.004354 c
79.442275 108.167451 81.781407 113.814615 81.781407 119.702124 c
81.781407 125.589633 79.442275 131.236797 75.279178 135.399895 c
71.11608 139.562992 65.468916 141.902124 59.581407 141.902124 c
53.693899 141.902124 48.046734 139.562992 43.883637 135.399895 c
39.720539 131.236797 37.381407 125.589633 37.381407 119.702124 c
37.381407 113.814615 39.720539 108.167451 43.883637 104.004354 c
48.046734 99.841256 53.693899 97.502124 59.581407 97.502124 c
cl
gsave
0.941 0.784 0.627 setrgbcolor
fill
grestore
stroke
grestore
gsave
180.08748 70.642566 m
181.731739 70.642566 183.308875 71.295837 184.471542 72.458504 c
185.634209 73.621171 186.28748 75.198307 186.28748 76.842566 c
186.28748 78.486825 185.634209 80.063961 184.471542 81.226628 c
183.308875 82.389295 181.731739 83.042566 180.08748 83.042566 c
178.443221 83.042566 176.866085 82.389295 175.703418 81.226628 c
174.540751 80.063961 173.88748 78.486825 173.88748 76.842566 c
173.88748 75.198307 174.540751 73.621171 175.703418 72.458504 c
176.866085 71.295837 178.443221 70.642566 180.08748 70.642566 c
cl
gsave
1.000 setgray
fill
grestore
stroke
grestore
gsave
37.703927 93.343308 m
39.348186 93.343308 40.925322 93.996579 42.087989 95.159246 c
43.250655 96.321913 43.903927 97.899049 43.903927 99.543308 c
43.903927 101.187567 43.250655 102.764703 42.087989 103.92737 c
40.925322 105.090037 39.348186 105.743308 37.703927 105.743308 c
36.059667 105.743308 34.482531 105.090037 33.319865 103.92737 c
32.157198 102.764703 31.503927 101.187567 31.503927 99.543308 c
31.503927 97.899049 32.157198 96.321913 33.319865 95.159246 c
34.482531 93.996579 36.059667 93.343308 37.703927 93.343308 c
cl
gsave
1.000 setgray
fill
grestore
stroke
grestore
gsave
100.55177 67.017184 m
102.196029 67.017184 103.773165 67.670455 104.935832 68.833122 c
106.098499 69.995789 106.75177 71.572925 106.75177 73.217184 c
106.75177 74.861444 106.098499 76.43858 104.935832 77.601246 c
103.773165 78.763913 102.196029 79.417184 100.55177 79.417184 c
98.907511 79.417184 97.330375 78.763913 96.167708 77.601246 c
95.005041 76.43858 94.35177 74.861444 94.35177 73.217184 c
94.35177 71.572925 95.005041 69.995789 96.167708 68.833122 c
97.330375 67.670455 98.907511 67.017184 100.55177 67.017184 c
cl
gsave
1.000 setgray
fill
grestore
stroke
grestore
gsave
213.652871 133.043865 m
215.29713 133.043865 216.874266 133.697136 218.036933 134.859803 c
219.1996 136.022469 219.852871 137.599605 219.852871 139.243865 c
219.852871 140.888124 219.1996 142.46526 218.036933 143.627927 c
216.874266 144.790594 215.29713 145.443865 213.652871 145.443865 c
212.008612 145.443865 210.431476 144.790594 209.268809 143.627927 c
208.106142 142.46526 207.452871 140.888124 207.452871 139.243865 c
207.452871 137.599605 208.106142 136.022469 209.268809 134.859803 c
210.431476 133.697136 212.008612 133.043865 213.652871 133.043865 c
cl
gsave
1.000 setgray
fill
grestore
stroke
grestore
gsave
138.911275 126.601297 m
140.555534 126.601297 142.13267 127.254568 143.295337 128.417235 c
144.458004 129.579902 145.111275 131.157038 145.111275 132.801297 c
145.111275 134.445556 144.458004 136.022692 143.295337 137.185359 c
142.13267 138.348026 140.555534 139.001297 138.911275 139.001297 c
137.267016 139.001297 135.68988 138.348026 134.527213 137.185359 c
133.364546 136.022692 132.711275 134.445556 132.711275 132.801297 c
132.711275 131.157038 133.364546 129.579902 134.527213 128.417235 c
135.68988 127.254568 137.267016 126.601297 138.911275 126.601297 c
cl
gsave
1.000 setgray
fill
grestore
stroke
grestore
gsave
62.392838 128.26187 m
64.037097 128.26187 65.614233 128.915141 66.7769 130.077808 c
67.939566 131.240475 68.592838 132.817611 68.592838 134.46187 c
68.592838 136.10613 67.939566 137.683266 66.7769 138.845932 c
65.614233 140.008599 64.037097 140.66187 62.392838 140.66187 c
60.748578 140.66187 59.171442 140.008599 58.008775 138.845932 c
56.846109 137.683266 56.192838 136.10613 56.192838 134.46187 c
56.192838 132.817611 56.846109 131.240475 58.008775 130.077808 c
59.171442 128.915141 60.748578 128.26187 62.392838 128.26187 c
cl
gsave
1.000 setgray
fill
grestore
stroke
grestore
end
showpage
