468
Lattice="23.03753893 0.0 0.0 0.0 23.11774402 0.0 0.0 0.0 14.2175" Properties=species:S:1:pos:R:3:Z:I:1 pbc="T T T"
Si      -0.00000000       0.93993159       1.30077110       14 
Si       3.83958982       0.93993159       1.30077110       14 
Si       7.67917964       0.93993159       1.30077110       14 
Si      11.51876947       0.93993159       1.30077110       14 
Si      15.35835929       0.93993159       1.30077110       14 
Si      19.19794911       0.93993159       1.30077110       14 
Si      -0.00000000       4.82247509       1.30124601       14 
Si       3.83958982       4.82247509       1.30124601       14 
Si       7.67917964       4.82247509       1.30124601       14 
Si      11.51876947       4.82247509       1.30124601       14 
Si      15.35835929       4.82247509       1.30124601       14 
Si      19.19794911       4.82247509       1.30124601       14 
Si       0.00000000       8.65200802       1.30087717       14 
Si       3.83958982       8.65200802       1.30087717       14 
Si       7.67917964       8.65200802       1.30087717       14 
Si      11.51876947       8.65200802       1.30087717       14 
Si      15.35835929       8.65200802       1.30087717       14 
Si      19.19794911       8.65200802       1.30087717       14 
Si       0.00000000      12.53006051       1.30053878       14 
Si       3.83958982      12.53006051       1.30053878       14 
Si       7.67917964      12.53006051       1.30053878       14 
Si      11.51876947      12.53006051       1.30053878       14 
Si      15.35835929      12.53006051       1.30053878       14 
Si      19.19794911      12.53006051       1.30053878       14 
Si      -0.00000000      16.35988206       1.30216840       14 
Si       3.83958982      16.35988206       1.30216840       14 
Si       7.67917964      16.35988206       1.30216840       14 
Si      11.51876947      16.35988206       1.30216840       14 
Si      15.35835929      16.35988206       1.30216840       14 
Si      19.19794911      16.35988206       1.30216840       14 
Si       0.00000000      20.24116059       1.30063123       14 
Si       3.83958982      20.24116059       1.30063123       14 
Si       7.67917964      20.24116059       1.30063123       14 
Si      11.51876947      20.24116059       1.30063123       14 
Si      15.35835929      20.24116059       1.30063123       14 
Si      19.19794911      20.24116059       1.30063123       14 
Si       1.91979491       0.96166191       2.56940457       14 
Si       5.75938473       0.96166191       2.56940457       14 
Si       9.59897455       0.96166191       2.56940457       14 
Si      13.43856438       0.96166191       2.56940457       14 
Si      17.27815420       0.96166191       2.56940457       14 
Si      21.11774402       0.96166191       2.56940457       14 
Si       1.91979491       4.81020487       2.57034531       14 
Si       5.75938473       4.81020487       2.57034531       14 
Si       9.59897455       4.81020487       2.57034531       14 
Si      13.43856438       4.81020487       2.57034531       14 
Si      17.27815420       4.81020487       2.57034531       14 
Si      21.11774402       4.81020487       2.57034531       14 
Si       1.91979491       8.67211646       2.57001892       14 
Si       5.75938473       8.67211646       2.57001892       14 
Si       9.59897455       8.67211646       2.57001892       14 
Si      13.43856438       8.67211646       2.57001892       14 
Si      17.27815420       8.67211646       2.57001892       14 
Si      21.11774402       8.67211646       2.57001892       14 
Si       1.91979491      12.52402456       2.56945501       14 
Si       5.75938473      12.52402456       2.56945501       14 
Si       9.59897455      12.52402456       2.56945501       14 
Si      13.43856438      12.52402456       2.56945501       14 
Si      17.27815420      12.52402456       2.56945501       14 
Si      21.11774402      12.52402456       2.56945501       14 
Si       1.91979491      16.38599152       2.57115597       14 
Si       5.75938473      16.38599152       2.57115597       14 
Si       9.59897455      16.38599152       2.57115597       14 
Si      13.43856438      16.38599152       2.57115597       14 
Si      17.27815420      16.38599152       2.57115597       14 
Si      21.11774402      16.38599152       2.57115597       14 
Si       1.91979491      20.23418207       2.56896516       14 
Si       5.75938473      20.23418207       2.56896516       14 
Si       9.59897455      20.23418207       2.56896516       14 
Si      13.43856438      20.23418207       2.56896516       14 
Si      17.27815420      20.23418207       2.56896516       14 
Si      21.11774402      20.23418207       2.56896516       14 
Si       1.91979491       2.88576747       3.87299454       14 
Si       5.75938473       2.88576747       3.87299454       14 
Si       9.59897455       2.88576747       3.87299454       14 
Si      13.43856438       2.88576747       3.87299454       14 
Si      17.27815420       2.88576747       3.87299454       14 
Si      21.11774402       2.88576747       3.87299454       14 
Si       1.91979491       6.74161682       3.83813063       14 
Si       5.75938473       6.74161682       3.83813063       14 
Si       9.59897455       6.74161682       3.83813063       14 
Si      13.43856438       6.74161682       3.83813063       14 
Si      17.27815420       6.74161682       3.83813063       14 
Si      21.11774402       6.74161682       3.83813063       14 
Si       1.91979491      10.59797701       3.87177093       14 
Si       5.75938473      10.59797701       3.87177093       14 
Si       9.59897455      10.59797701       3.87177093       14 
Si      13.43856438      10.59797701       3.87177093       14 
Si      17.27815420      10.59797701       3.87177093       14 
Si      21.11774402      10.59797701       3.87177093       14 
Si       1.91979491      14.45411412       3.83811744       14 
Si       5.75938473      14.45411412       3.83811744       14 
Si       9.59897455      14.45411412       3.83811744       14 
Si      13.43856438      14.45411412       3.83811744       14 
Si      17.27815420      14.45411412       3.83811744       14 
Si      21.11774402      14.45411412       3.83811744       14 
Si       1.91979491      18.30996275       3.87339890       14 
Si       5.75938473      18.30996275       3.87339890       14 
Si       9.59897455      18.30996275       3.87339890       14 
Si      13.43856438      18.30996275       3.87339890       14 
Si      17.27815420      18.30996275       3.87339890       14 
Si      21.11774402      18.30996275       3.87339890       14 
Si       1.91979491      22.15638703       3.84232414       14 
Si       5.75938473      22.15638703       3.84232414       14 
Si       9.59897455      22.15638703       3.84232414       14 
Si      13.43856438      22.15638703       3.84232414       14 
Si      17.27815420      22.15638703       3.84232414       14 
Si      21.11774402      22.15638703       3.84232414       14 
Si       0.00000000       2.88786397       5.18030743       14 
Si       3.83958982       2.88786397       5.18030743       14 
Si       7.67917964       2.88786397       5.18030743       14 
Si      11.51876947       2.88786397       5.18030743       14 
Si      15.35835929       2.88786397       5.18030743       14 
Si      19.19794911       2.88786397       5.18030743       14 
Si      -0.00000000       6.73965548       5.11685068       14 
Si       3.83958982       6.73965548       5.11685068       14 
Si       7.67917964       6.73965548       5.11685068       14 
Si      11.51876947       6.73965548       5.11685068       14 
Si      15.35835929       6.73965548       5.11685068       14 
Si      19.19794911       6.73965548       5.11685068       14 
Si       0.00000000      10.59451936       5.17784635       14 
Si       3.83958982      10.59451936       5.17784635       14 
Si       7.67917964      10.59451936       5.17784635       14 
Si      11.51876947      10.59451936       5.17784635       14 
Si      15.35835929      10.59451936       5.17784635       14 
Si      19.19794911      10.59451936       5.17784635       14 
Si       0.00000000      14.44966620       5.11646560       14 
Si       3.83958982      14.44966620       5.11646560       14 
Si       7.67917964      14.44966620       5.11646560       14 
Si      11.51876947      14.44966620       5.11646560       14 
Si      15.35835929      14.44966620       5.11646560       14 
Si      19.19794911      14.44966620       5.11646560       14 
Si       0.00000000      18.30152562       5.18035726       14 
Si       3.83958982      18.30152562       5.18035726       14 
Si       7.67917964      18.30152562       5.18035726       14 
Si      11.51876947      18.30152562       5.18035726       14 
Si      15.35835929      18.30152562       5.18035726       14 
Si      19.19794911      18.30152562       5.18035726       14 
Si       0.00000000      22.15309376       5.11884006       14 
Si       3.83958982      22.15309376       5.11884006       14 
Si       7.67917964      22.15309376       5.11884006       14 
Si      11.51876947      22.15309376       5.11884006       14 
Si      15.35835929      22.15309376       5.11884006       14 
Si      19.19794911      22.15309376       5.11884006       14 
Si      -0.00000000       0.92837626       6.44260715       14 
Si       3.83958982       0.92837626       6.44260715       14 
Si       7.67917964       0.92837626       6.44260715       14 
Si      11.51876947       0.92837626       6.44260715       14 
Si      15.35835929       0.92837626       6.44260715       14 
Si      19.19794911       0.92837626       6.44260715       14 
Si       0.00000000       4.84734853       6.43476641       14 
Si       3.83958982       4.84734853       6.43476641       14 
Si       7.67917964       4.84734853       6.43476641       14 
Si      11.51876947       4.84734853       6.43476641       14 
Si      15.35835929       4.84734853       6.43476641       14 
Si      19.19794911       4.84734853       6.43476641       14 
Si      -0.00000000       8.63412037       6.43244189       14 
Si       3.83958982       8.63412037       6.43244189       14 
Si       7.67917964       8.63412037       6.43244189       14 
Si      11.51876947       8.63412037       6.43244189       14 
Si      15.35835929       8.63412037       6.43244189       14 
Si      19.19794911       8.63412037       6.43244189       14 
Si       0.00000000      12.55481898       6.43178693       14 
Si       3.83958982      12.55481898       6.43178693       14 
Si       7.67917964      12.55481898       6.43178693       14 
Si      11.51876947      12.55481898       6.43178693       14 
Si      15.35835929      12.55481898       6.43178693       14 
Si      19.19794911      12.55481898       6.43178693       14 
Si       0.00000000      16.34115478       6.43493425       14 
Si       3.83958982      16.34115478       6.43493425       14 
Si       7.67917964      16.34115478       6.43493425       14 
Si      11.51876947      16.34115478       6.43493425       14 
Si      15.35835929      16.34115478       6.43493425       14 
Si      19.19794911      16.34115478       6.43493425       14 
Si      -0.00000000      20.26054759       6.44233779       14 
Si       3.83958982      20.26054759       6.44233779       14 
Si       7.67917964      20.26054759       6.44233779       14 
Si      11.51876947      20.26054759       6.44233779       14 
Si      15.35835929      20.26054759       6.44233779       14 
Si      19.19794911      20.26054759       6.44233779       14 
Si       1.91979491       0.89456752       7.74156293       14 
Si       5.75938473       0.89456752       7.74156293       14 
Si       9.59897455       0.89456752       7.74156293       14 
Si      13.43856438       0.89456752       7.74156293       14 
Si      17.27815420       0.89456752       7.74156293       14 
Si      21.11774402       0.89456752       7.74156293       14 
Si       1.91979491       4.87918325       7.72922938       14 
Si       5.75938473       4.87918325       7.72922938       14 
Si       9.59897455       4.87918325       7.72922938       14 
Si      13.43856438       4.87918325       7.72922938       14 
Si      17.27815420       4.87918325       7.72922938       14 
Si      21.11774402       4.87918325       7.72922938       14 
Si       1.91979491       8.60225340       7.72682211       14 
Si       5.75938473       8.60225340       7.72682211       14 
Si       9.59897455       8.60225340       7.72682211       14 
Si      13.43856438       8.60225340       7.72682211       14 
Si      17.27815420       8.60225340       7.72682211       14 
Si      21.11774402       8.60225340       7.72682211       14 
Si       1.91979491      12.58399205       7.72621588       14 
Si       5.75938473      12.58399205       7.72621588       14 
Si       9.59897455      12.58399205       7.72621588       14 
Si      13.43856438      12.58399205       7.72621588       14 
Si      17.27815420      12.58399205       7.72621588       14 
Si      21.11774402      12.58399205       7.72621588       14 
Si       1.91979491      16.30646105       7.73017403       14 
Si       5.75938473      16.30646105       7.73017403       14 
Si       9.59897455      16.30646105       7.73017403       14 
Si      13.43856438      16.30646105       7.73017403       14 
Si      17.27815420      16.30646105       7.73017403       14 
Si      21.11774402      16.30646105       7.73017403       14 
Si       1.91979491      20.29086007       7.74127155       14 
Si       5.75938473      20.29086007       7.74127155       14 
Si       9.59897455      20.29086007       7.74127155       14 
Si      13.43856438      20.29086007       7.74127155       14 
Si      17.27815420      20.29086007       7.74127155       14 
Si      21.11774402      20.29086007       7.74127155       14 
Si       1.91979491       2.88977566       8.89321771       14 
Si       5.75938473       2.88977566       8.89321771       14 
Si       9.59897455       2.88977566       8.89321771       14 
Si      13.43856438       2.88977566       8.89321771       14 
Si      17.27815420       2.88977566       8.89321771       14 
Si      21.11774402       2.88977566       8.89321771       14 
Si       1.91979491       6.74210457       9.13482524       14 
Si       5.75938473       6.74210457       9.13482524       14 
Si       9.59897455       6.74210457       9.13482524       14 
Si      13.43856438       6.74210457       9.13482524       14 
Si      17.27815420       6.74210457       9.13482524       14 
Si      21.11774402       6.74210457       9.13482524       14 
Si       1.91979491      10.59315787       8.89135859       14 
Si       5.75938473      10.59315787       8.89135859       14 
Si       9.59897455      10.59315787       8.89135859       14 
Si      13.43856438      10.59315787       8.89135859       14 
Si      17.27815420      10.59315787       8.89135859       14 
Si      21.11774402      10.59315787       8.89135859       14 
Si       1.91979491      14.44213530       9.13473355       14 
Si       5.75938473      14.44213530       9.13473355       14 
Si       9.59897455      14.44213530       9.13473355       14 
Si      13.43856438      14.44213530       9.13473355       14 
Si      17.27815420      14.44213530       9.13473355       14 
Si      21.11774402      14.44213530       9.13473355       14 
Si       1.91979491      18.29581385       8.89376678       14 
Si       5.75938473      18.29581385       8.89376678       14 
Si       9.59897455      18.29581385       8.89376678       14 
Si      13.43856438      18.29581385       8.89376678       14 
Si      17.27815420      18.29581385       8.89376678       14 
Si      21.11774402      18.29581385       8.89376678       14 
Si       1.91979491      22.15065717       9.15230274       14 
Si       5.75938473      22.15065717       9.15230274       14 
Si       9.59897455      22.15065717       9.15230274       14 
Si      13.43856438      22.15065717       9.15230274       14 
Si      17.27815420      22.15065717       9.15230274       14 
Si      21.11774402      22.15065717       9.15230274       14 
Si      -0.00000000       2.88890120      10.15203086       14 
Si       3.83958982       2.88890120      10.15203086       14 
Si       7.67917964       2.88890120      10.15203086       14 
Si      11.51876947       2.88890120      10.15203086       14 
Si      15.35835929       2.88890120      10.15203086       14 
Si      19.19794911       2.88890120      10.15203086       14 
Si      -0.00000000       6.74195777      10.46140923       14 
Si       3.83958982       6.74195777      10.46140923       14 
Si       7.67917964       6.74195777      10.46140923       14 
Si      11.51876947       6.74195777      10.46140923       14 
Si      15.35835929       6.74195777      10.46140923       14 
Si      19.19794911       6.74195777      10.46140923       14 
Si      -0.00000000      10.59251220      10.15285027       14 
Si       3.83958982      10.59251220      10.15285027       14 
Si       7.67917964      10.59251220      10.15285027       14 
Si      11.51876947      10.59251220      10.15285027       14 
Si      15.35835929      10.59251220      10.15285027       14 
Si      19.19794911      10.59251220      10.15285027       14 
Si      -0.00000000      14.43992026      10.46115664       14 
Si       3.83958982      14.43992026      10.46115664       14 
Si       7.67917964      14.43992026      10.46115664       14 
Si      11.51876947      14.43992026      10.46115664       14 
Si      15.35835929      14.43992026      10.46115664       14 
Si      19.19794911      14.43992026      10.46115664       14 
Si      -0.00000000      18.29556630      10.15208341       14 
Si       3.83958982      18.29556630      10.15208341       14 
Si       7.67917964      18.29556630      10.15208341       14 
Si      11.51876947      18.29556630      10.15208341       14 
Si      15.35835929      18.29556630      10.15208341       14 
Si      19.19794911      18.29556630      10.15208341       14 
Si       0.00000000      22.14923740      10.48100458       14 
Si       3.83958982      22.14923740      10.48100458       14 
Si       7.67917964      22.14923740      10.48100458       14 
Si      11.51876947      22.14923740      10.48100458       14 
Si      15.35835929      22.14923740      10.48100458       14 
Si      19.19794911      22.14923740      10.48100458       14 
Si      -0.00000000       1.07634870      11.61878597       14 
Si       3.83958982       1.07634870      11.61878597       14 
Si       7.67917964       1.07634870      11.61878597       14 
Si      11.51876947       1.07634870      11.61878597       14 
Si      15.35835929       1.07634870      11.61878597       14 
Si      19.19794911       1.07634870      11.61878597       14 
Si      -0.00000000       4.70802651      11.60677310       14 
Si       3.83958982       4.70802651      11.60677310       14 
Si       7.67917964       4.70802651      11.60677310       14 
Si      11.51876947       4.70802651      11.60677310       14 
Si      15.35835929       4.70802651      11.60677310       14 
Si      19.19794911       4.70802651      11.60677310       14 
Si      -0.00000000       8.77327364      11.61133713       14 
Si       3.83958982       8.77327364      11.61133713       14 
Si       7.67917964       8.77327364      11.61133713       14 
Si      11.51876947       8.77327364      11.61133713       14 
Si      15.35835929       8.77327364      11.61133713       14 
Si      19.19794911       8.77327364      11.61133713       14 
Si       0.00000000      12.40871305      11.61460236       14 
Si       3.83958982      12.40871305      11.61460236       14 
Si       7.67917964      12.40871305      11.61460236       14 
Si      11.51876947      12.40871305      11.61460236       14 
Si      15.35835929      12.40871305      11.61460236       14 
Si      19.19794911      12.40871305      11.61460236       14 
Si      -0.00000000      16.47337059      11.60394768       14 
Si       3.83958982      16.47337059      11.60394768       14 
Si       7.67917964      16.47337059      11.60394768       14 
Si      11.51876947      16.47337059      11.60394768       14 
Si      15.35835929      16.47337059      11.60394768       14 
Si      19.19794911      16.47337059      11.60394768       14 
Si       0.00000000      20.10543736      11.62229825       14 
Si       3.83958982      20.10543736      11.62229825       14 
Si       7.67917964      20.10543736      11.62229825       14 
Si      11.51876947      20.10543736      11.62229825       14 
Si      15.35835929      20.10543736      11.62229825       14 
Si      19.19794911      20.10543736      11.62229825       14 
Si       1.91979491       1.71218055      12.76196782       14 
Si       5.75938473       1.71218055      12.76196782       14 
Si       9.59897455       1.71218055      12.76196782       14 
Si      13.43856438       1.71218055      12.76196782       14 
Si      17.27815420       1.71218055      12.76196782       14 
Si      21.11774402       1.71218055      12.76196782       14 
Si       1.91979491       4.08959120      12.75758164       14 
Si       5.75938473       4.08959120      12.75758164       14 
Si       9.59897455       4.08959120      12.75758164       14 
Si      13.43856438       4.08959120      12.75758164       14 
Si      17.27815420       4.08959120      12.75758164       14 
Si      21.11774402       4.08959120      12.75758164       14 
Si       1.91979491       9.39751481      12.76123742       14 
Si       5.75938473       9.39751481      12.76123742       14 
Si       9.59897455       9.39751481      12.76123742       14 
Si      13.43856438       9.39751481      12.76123742       14 
Si      17.27815420       9.39751481      12.76123742       14 
Si      21.11774402       9.39751481      12.76123742       14 
Si       1.91979491      11.78027934      12.76299491       14 
Si       5.75938473      11.78027934      12.76299491       14 
Si       9.59897455      11.78027934      12.76299491       14 
Si      13.43856438      11.78027934      12.76299491       14 
Si      17.27815420      11.78027934      12.76299491       14 
Si      21.11774402      11.78027934      12.76299491       14 
Si       1.91979491      17.08761196      12.75652273       14 
Si       5.75938473      17.08761196      12.75652273       14 
Si       9.59897455      17.08761196      12.75652273       14 
Si      13.43856438      17.08761196      12.75652273       14 
Si      17.27815420      17.08761196      12.75652273       14 
Si      21.11774402      17.08761196      12.75652273       14 
Si       1.91979491      19.46346177      12.76325185       14 
Si       5.75938473      19.46346177      12.76325185       14 
Si       9.59897455      19.46346177      12.76325185       14 
Si      13.43856438      19.46346177      12.76325185       14 
Si      17.27815420      19.46346177      12.76325185       14 
Si      21.11774402      19.46346177      12.76325185       14 
H       1.91979491       1.03057176      14.08961468        1 
H       1.91979491       4.79577517      14.07263034        1 
H       1.91979491       8.70580926      14.08302976        1 
H       1.91979491      12.46648936      14.08717050        1 
H       1.91979491      16.37377617      14.06806338        1 
H       1.91979491      20.14007865      14.09580610        1 
H       5.75938473       1.03057176      14.08961468        1 
H       5.75938473       4.79577517      14.07263034        1 
H       5.75938473       8.70580926      14.08302976        1 
H       5.75938473      12.46648936      14.08717050        1 
H       5.75938473      16.37377617      14.06806338        1 
H       5.75938473      20.14007865      14.09580610        1 
H       9.59897455       1.03057176      14.08961468        1 
H       9.59897455       4.79577517      14.07263034        1 
H       9.59897455       8.70580926      14.08302976        1 
H       9.59897455      12.46648936      14.08717050        1 
H       9.59897455      16.37377617      14.06806338        1 
H       9.59897455      20.14007865      14.09580610        1 
H      13.43856438       1.03057176      14.08961468        1 
H      13.43856438       4.79577517      14.07263034        1 
H      13.43856438       8.70580926      14.08302976        1 
H      13.43856438      12.46648936      14.08717050        1 
H      13.43856438      16.37377617      14.06806338        1 
H      13.43856438      20.14007865      14.09580610        1 
H      17.27815420       1.03057176      14.08961468        1 
H      17.27815420       4.79577517      14.07263034        1 
H      17.27815420       8.70580926      14.08302976        1 
H      17.27815420      12.46648936      14.08717050        1 
H      17.27815420      16.37377617      14.06806338        1 
H      17.27815420      20.14007865      14.09580610        1 
H      21.11774402       1.03057176      14.08961468        1 
H      21.11774402       4.79577517      14.07263034        1 
H      21.11774402       8.70580926      14.08302976        1 
H      21.11774402      12.46648936      14.08717050        1 
H      21.11774402      16.37377617      14.06806338        1 
H      21.11774402      20.14007865      14.09580610        1 
H      -0.00000000      -0.17783496       0.31158918        1 
H       0.00000000       2.11685745       0.39390839        1 
H      -0.00000000       3.64943359       0.38840536        1 
H       0.00000000       5.94070527       0.31471954        1 
H      -0.00000000       7.52534973       0.32410041        1 
H       0.00000000       9.81722049       0.38033831        1 
H      -0.00000000      11.34604691       0.40355313        1 
H       0.00000000      13.63692597       0.29987900        1 
H      -0.00000000      15.22099893       0.34029716        1 
H      -0.00000000      17.51310006       0.36513076        1 
H      -0.00000000      19.04612837       0.41741064        1 
H       0.00000000      21.33934868       0.28825827        1 
H       3.83958982      -0.17783496       0.31158918        1 
H       3.83958982       2.11685745       0.39390839        1 
H       3.83958982       3.64943359       0.38840536        1 
H       3.83958982       5.94070527       0.31471954        1 
H       3.83958982       7.52534973       0.32410041        1 
H       3.83958982       9.81722049       0.38033831        1 
H       3.83958982      11.34604691       0.40355313        1 
H       3.83958982      13.63692597       0.29987900        1 
H       3.83958982      15.22099893       0.34029716        1 
H       3.83958982      17.51310006       0.36513076        1 
H       3.83958982      19.04612837       0.41741064        1 
H       3.83958982      21.33934868       0.28825827        1 
H       7.67917964      -0.17783496       0.31158918        1 
H       7.67917964       2.11685745       0.39390839        1 
H       7.67917964       3.64943359       0.38840536        1 
H       7.67917964       5.94070527       0.31471954        1 
H       7.67917964       7.52534973       0.32410041        1 
H       7.67917964       9.81722049       0.38033831        1 
H       7.67917964      11.34604691       0.40355313        1 
H       7.67917964      13.63692597       0.29987900        1 
H       7.67917964      15.22099893       0.34029716        1 
H       7.67917964      17.51310006       0.36513076        1 
H       7.67917964      19.04612837       0.41741064        1 
H       7.67917964      21.33934868       0.28825827        1 
H      11.51876947      -0.17783496       0.31158918        1 
H      11.51876947       2.11685745       0.39390839        1 
H      11.51876947       3.64943359       0.38840536        1 
H      11.51876947       5.94070527       0.31471954        1 
H      11.51876947       7.52534973       0.32410041        1 
H      11.51876947       9.81722049       0.38033831        1 
H      11.51876947      11.34604691       0.40355313        1 
H      11.51876947      13.63692597       0.29987900        1 
H      11.51876947      15.22099893       0.34029716        1 
H      11.51876947      17.51310006       0.36513076        1 
H      11.51876947      19.04612837       0.41741064        1 
H      11.51876947      21.33934868       0.28825827        1 
H      15.35835929      -0.17783496       0.31158918        1 
H      15.35835929       2.11685745       0.39390839        1 
H      15.35835929       3.64943359       0.38840536        1 
H      15.35835929       5.94070527       0.31471954        1 
H      15.35835929       7.52534973       0.32410041        1 
H      15.35835929       9.81722049       0.38033831        1 
H      15.35835929      11.34604691       0.40355313        1 
H      15.35835929      13.63692597       0.29987900        1 
H      15.35835929      15.22099893       0.34029716        1 
H      15.35835929      17.51310006       0.36513076        1 
H      15.35835929      19.04612837       0.41741064        1 
H      15.35835929      21.33934868       0.28825827        1 
H      19.19794911      -0.17783496       0.31158918        1 
H      19.19794911       2.11685745       0.39390839        1 
H      19.19794911       3.64943359       0.38840536        1 
H      19.19794911       5.94070527       0.31471954        1 
H      19.19794911       7.52534973       0.32410041        1 
H      19.19794911       9.81722049       0.38033831        1 
H      19.19794911      11.34604691       0.40355313        1 
H      19.19794911      13.63692597       0.29987900        1 
H      19.19794911      15.22099893       0.34029716        1 
H      19.19794911      17.51310006       0.36513076        1 
H      19.19794911      19.04612837       0.41741064        1 
H      19.19794911      21.33934868       0.28825827        1 
